<?xml version="1.0" encoding="utf-8"?>
<!-- Generator: Adobe Illustrator 16.0.0, SVG Export Plug-In . SVG Version: 6.00 Build 0)  -->
<!DOCTYPE svg PUBLIC "-//W3C//DTD SVG 1.1//EN" "http://www.w3.org/Graphics/SVG/1.1/DTD/svg11.dtd">
<svg version="1.1" id="Layer_1" xmlns="http://www.w3.org/2000/svg" xmlns:xlink="http://www.w3.org/1999/xlink" x="0px" y="0px"
	 width="96px" height="23px" viewBox="0 0 96 23" enable-background="new 0 0 96 23" xml:space="preserve">
<g>
	<polygon fill="#FFFFFF" points="47.647,6.649 53.614,23.014 58.488,23.014 50.07,0.005 	"/>
	<polygon fill="#0D0D0D" points="45.227,0 45.224,0.005 36.808,23.014 41.682,23.014 47.647,6.649 50.07,0.005 50.068,0 	"/>
	<path fill="#141414" d="M9.689,0.076c1.447,0,2.793,0.238,4.042,0.71c1.247,0.467,2.327,1.174,3.24,2.116
		c0.912,0.943,1.624,2.121,2.14,3.531c0.512,1.414,0.769,3.073,0.769,4.978c0,1.669-0.211,3.209-0.629,4.627
		c-0.42,1.408-1.053,2.628-1.903,3.658c-0.849,1.027-1.908,1.835-3.177,2.424c-1.269,0.588-2.762,0.882-4.48,0.882H0V0.076H9.689z
		 M9.343,18.766c0.712,0,1.404-0.118,2.077-0.354c0.671-0.234,1.267-0.626,1.792-1.171c0.523-0.549,0.943-1.26,1.257-2.138
		c0.315-0.877,0.472-1.948,0.472-3.209c0-1.157-0.11-2.198-0.332-3.131c-0.22-0.931-0.581-1.729-1.084-2.391
		c-0.505-0.665-1.169-1.175-1.997-1.528c-0.83-0.354-1.852-0.529-3.067-0.529H4.938v14.451H9.343z"/>
	<polygon fill="#141414" points="81.768,0.077 91.143,15.455 91.203,15.455 91.203,0.077 95.828,0.077 95.828,23.003 90.891,23.003 
		81.549,7.655 81.485,7.655 81.485,23.003 76.862,23.003 76.862,0.077 	"/>
</g>
</svg>
