<?xml version="1.0" encoding="utf-8"?>
<!-- Generator: Adobe Illustrator 16.0.0, SVG Export Plug-In . SVG Version: 6.00 Build 0)  -->
<!DOCTYPE svg PUBLIC "-//W3C//DTD SVG 1.1//EN" "http://www.w3.org/Graphics/SVG/1.1/DTD/svg11.dtd">
<svg version="1.1" id="Layer_1" xmlns="http://www.w3.org/2000/svg" xmlns:xlink="http://www.w3.org/1999/xlink" x="0px" y="0px"
	 width="8px" height="15px" viewBox="0 0 8 15" enable-background="new 0 0 8 15" xml:space="preserve">
<path fill="#FFDB00" d="M2,15V8H0V5h2c0,0,0-0.611,0-1.737C2,1.562,2.884,0,5.418,0C6.443,0,8,0,8,0v2.349
	c0,0,0.043,0.219-0.77-0.007C6,2,5,2.879,5,3.578C5,4.13,5,2,5,5h3L7,8H5v7H2z"/>
</svg>
